{
  "type": "minecraft:crafting_shaped",
  "pattern": [
    "###",
    " S ",
	" S "
  ],
  "key": {
    "#": {
      "item": "em:aquamarine"
    },
    "S": {
      "item": "minecraft:stick"
    }
  },
  "result": {
    "item": "em:aqua_pickaxe"
  }
}