{
  "type": "minecraft:crafting_shaped",
  "pattern": [
    " #",
    " #",
	" S"
  ],
  "key": {
    "#": {
      "item": "em:obsidian_ingot"
    },
    "S": {
      "item": "minecraft:stick"
    }
  },
  "result": {
    "item": "em:obsi_sword"
  }
}