{
  "type": "minecraft:crafting_shaped",
  "pattern": [
    "##",
    " S",
	" S"
  ],
  "key": {
    "#": {
      "item": "em:pyrargyrite"
    },
    "S": {
      "item": "minecraft:stick"
    }
  },
  "result": {
    "item": "em:pyra_hoe"
  }
}