{
  "type": "minecraft:crafting_shaped",
  "pattern": [
    "# #",
    "###",
	"###"
  ],
  "key": {
    "#": {
      "item": "em:pyrargyrite"
    }
  },
  "result": {
    "item": "em:pyra_chest"
  }
}