{
  "type": "minecraft:crafting_shaped",
  "pattern": [
    " RS",
    "R S",
	" RS"
  ],
  "key": {
    "R": {
      "item": "em:saphir"
    },
    "S": {
    	"item": "minecraft:string"
    }
  },
  "result": {
    "item": "em:saphir_bow"
  }
}