{
  "type": "minecraft:crafting_shaped",
  "pattern": [
    "###",
    "# #",
	"# #"
  ],
  "key": {
    "#": {
      "item": "em:tourmaline"
    }
  },
  "result": {
    "item": "em:tourmaline_legg"
  }
}